How Much Carbon Do Pennsylvania Electricity Plants Emit? - Matt Broerman
…
In the log-scaled plot above, these show up as spiked vertical lines. We could interpolate these as missing values by using tidyr::fill() to add the previous value as the missing value. This should be relatively robust assuming that we have no long sequences of zeros. Do we?

plants %>% 
  mutate(is_zero = (value == 0)) %>% 
  group_by(name_plt, 
           grp = with(rle(is_zero), 
                      rep(seq_along(lengths), lengths))) %>%
  mutate(Counter = seq_along(grp)) %>%
  ungroup() %>%
  select(-grp) %>% 
  filter(value == 0) %>% 
  count(Counter)
#> # A tibble: 24 x 2
#>    Counter     n
#>      <int> <int>
#>  1       1   141
#>  2       2    60
#>  3       3    36
#>  4       4    19
#>  5       5     5
#>  6       6     5
#>  7       7     3
#>  8       8     3
#>  9       9     3
#> 10      10     3
#> # … with 14 more rows
…
